org/protege/editor/core/ui/progress/BackgroundTaskLabel$1.class
org/protege/editor/core/ui/toolbar/MainToolBarBuilder.class
org/protege/editor/core/plugin/EditorKitExtensionMatcher.class
org/protege/editor/core/ui/view/View$5.class
org/protege/editor/core/ui/util/LinkLabel.class
org/protege/editor/core/ui/preferences/PreferencesDialogPanel.class
org/protege/editor/core/ui/wizard/AbstractWizardPanel$HolderPanel.class
org/protege/editor/core/update/PluginTable$2.class
org/protege/editor/core/ui/error/ErrorExplainer$1.class
org/protege/editor/core/ui/error/ErrorExplainer$ErrorExplanation.class
org/protege/editor/core/ui/tabbedpane/CloseableTabbedPaneUI$2.class
org/protege/editor/core/ui/progress/BackgroundTaskLabel.class
org/protege/editor/core/ui/workspace/CustomWorkspaceTabsManager.class
org/protege/editor/core/ui/preferences/ShowPreferencesAction.class
org/protege/editor/core/editorkit/EditorKitDescriptor.class
org/protege/editor/core/ui/progress/BackgroundTask.class
org/protege/editor/core/ui/progress/BackgroundTaskListener.class
org/protege/editor/core/ui/wizard/WizardController.class
org/protege/editor/core/ui/preferences/node/BooleanPreferenceNode$1.class
org/protege/editor/core/log/LogView.class
org/protege/editor/core/ui/list/MListAddButton.class
org/protege/editor/core/ui/util/VerifyingOptionPane.class
org/protege/editor/core/ui/laf/ProtegeScrollBarUI$2.class
org/protege/editor/core/editorkit/plugin/EditorKitHookPlugin.class
org/protege/editor/core/plugin/PluginUtilities.class
org/protege/editor/core/ui/list/RendererWithInsets.class
org/protege/editor/core/ui/view/ViewHolder$2.class
org/protege/editor/core/ui/toolbar/MainToolBarActionPluginLoader.class
org/protege/editor/core/editorkit/EditorKitFactoryPluginLoader.class
org/protege/editor/core/ui/workspace/CustomWorkspaceTabsManager$CustomTabPlugin$CustomTab.class
org/protege/editor/core/plugin/PluginExtensionFilter.class
org/protege/editor/core/util/StringAbbreviator.class
org/protege/editor/core/ui/util/AbstractSelectionProvider.class
org/protege/editor/core/editorkit/EditorKitFactory.class
org/protege/editor/core/ui/util/ComponentFactory.class
org/protege/editor/core/ui/split/ViewSplitPaneDivider$DividerComponent.class
org/protege/editor/core/plugin/PluginExtensionMatcher.class
org/protege/editor/core/ui/error/ErrorLog$ErrorLogEntry.class
org/protege/editor/core/ui/list/MListEditButton.class
org/protege/editor/core/ui/menu/MenuActionPlugin.class
org/protege/editor/core/log/LogViewImpl.class
org/protege/editor/core/FileUtils.class
org/protege/editor/core/plugin/PluginParameterExtensionMatcher.class
org/protege/editor/core/OntologyRepositoryFactoryPlugin.class
org/protege/editor/core/ui/util/FilePathPanel$1.class
org/protege/editor/core/ProtegeApplication$1.class
org/protege/editor/core/ui/preferences/PreferencesPanelPlugin.class
org/protege/editor/core/ui/workspace/WorkspaceTab$1.class
org/protege/editor/core/ui/util/CheckList$CheckListLayoutManager.class
org/protege/editor/core/OntologyRepositoryEntry.class
org/protege/editor/core/editorkit/EditorKitFactoryPlugin.class
org/protege/editor/core/ui/view/ViewAction.class
org/protege/editor/core/ui/util/UIUtil$2.class
org/protege/editor/core/ui/view/ViewToolBarActionPluginLoader.class
org/protege/editor/core/plugin/BundleExceptionHandler.class
org/protege/editor/core/ui/workspace/WorkspaceTabPlugin.class
org/protege/editor/core/ui/util/ErrorMessage.class
org/protege/editor/core/ui/action/start/AltStartupAction.class
org/protege/editor/core/ui/view/DisposableAction.class
org/protege/editor/core/prefs/JavaBackedPreferencesManagerImpl.class
org/protege/editor/core/OntologyRepositoryFactory.class
org/protege/editor/core/ui/action/ToolBarActionPlugin.class
org/protege/editor/core/ui/workspace/TabbedWorkspace.class
org/protege/editor/core/ui/util/CheckTableModel.class
org/protege/editor/core/ui/view/button/ViewButtonUI.class
org/protege/editor/core/update/PluginRegistryImpl$1.class
org/protege/editor/core/ui/OpenFromURLPanel$1.class
org/protege/editor/core/ui/wizard/WizardModel.class
org/protege/editor/core/ui/action/start/ResetPreferencesAction.class
org/protege/editor/core/ui/util/VerifiedInputEditor.class
org/protege/editor/core/ui/util/AugmentedJTextField.class
org/protege/editor/core/ui/split/ViewSplitPaneUI.class
org/protege/editor/core/ui/OpenFromRepositoryPanel.class
org/protege/editor/core/ui/util/FileURIPanel$1.class
org/protege/editor/core/ui/wizard/WizardPanel.class
org/protege/editor/core/plugin/BundleExceptionParser.class
org/protege/editor/core/ui/RepositoryTableModel$EntryShortNameURIComparator.class
org/protege/editor/core/ui/view/NestedViewSplitPane$1.class
org/protege/editor/core/ui/workspace/WorkspaceTabPluginLoader.class
org/protege/editor/core/ui/menu/MenuBuilder$MenuActionPluginComparator.class
org/protege/editor/core/ui/workspace/WorkspaceTabPluginJPFImpl.class
org/protege/editor/core/update/PluginTable$PluginUpdateTableModel.class
org/protege/editor/core/log/LogManager.class
org/protege/editor/core/log/ThrowableInfo.class
org/protege/editor/core/ui/menu/MenuBuilder$1.class
org/protege/editor/core/ui/util/JOptionPaneEx.class
org/protege/editor/core/update/PluginPreferencesPanel.class
org/protege/editor/core/update/PluginDocumentParseException.class
org/protege/editor/core/ui/wizard/Wizard.class
org/protege/editor/core/ui/error/ErrorExplainer$ParseErrorExplanation.class
org/protege/editor/core/ui/view/View$3.class
org/protege/editor/core/ui/action/NewAction.class
org/protege/editor/core/ui/preferences/PreferencesPanelLayoutManager.class
org/protege/editor/core/prefs/JavaBackedPreferencesImpl.class
org/protege/editor/core/plugin/PluginProperties.class
org/protege/editor/core/ui/workspace/Workspace.class
org/protege/editor/core/ui/view/ViewActionPluginJPFImpl.class
org/protege/editor/core/ui/list/RemovableObjectList$1.class
org/protege/editor/core/ui/error/ErrorLog.class
org/protege/editor/core/ui/workspace/WorkspaceViewManager.class
org/protege/editor/core/ui/action/OpenRecentAction.class
org/protege/editor/core/ui/workspace/WorkspaceFrame$1.class
org/protege/editor/core/ProtegeManager.class
org/protege/editor/core/ui/tabbedpane/WorkspaceTabCloseHandler.class
org/protege/editor/core/update/PluginManager$SearchType.class
org/protege/editor/core/ui/preferences/PreferencesPanelPluginJPFImpl.class
org/protege/editor/core/ui/workspace/WorkspaceViewsTab.class
org/protege/editor/core/editorkit/EditorKit.class
org/protege/editor/core/ui/util/NativeBrowserLauncher.class
org/protege/editor/core/platform/OSGi.class
org/protege/editor/core/ui/workspace/CustomWorkspaceTabsManager$CustomTabPlugin.class
org/protege/editor/core/plugin/AbstractPluginLoader.class
org/protege/editor/core/ui/preferences/node/PreferenceNode.class
org/protege/editor/core/ui/OpenFromURLPanel$AddURIItem.class
org/protege/editor/core/ui/workspace/tabs/ImportTabAction.class
org/protege/editor/core/platform/OSUtils.class
org/protege/editor/core/AbstractModelManager.class
org/protege/editor/core/ui/wizard/AbstractWizardPanel$1.class
org/protege/editor/core/ui/view/ViewBanner$1.class
org/protege/editor/core/ui/util/Resettable.class
org/protege/editor/core/ui/view/FloatViewIcon.class
org/protege/editor/core/log/LogManager$1.class
org/protege/editor/core/update/UpdateException.class
org/protege/editor/core/ui/error/SendErrorReportHandler.class
org/protege/editor/core/ui/util/OpenRequestHandler.class
org/protege/editor/core/ui/workspace/views/ViewMenuAction$2.class
org/protege/editor/core/ui/menu/MenuActionPluginJPFImpl.class
org/protege/editor/core/ui/about/PluginInfoTableModel$Columns.class
org/protege/editor/core/ui/util/CheckTable$4.class
org/protege/editor/core/ui/list/MListDeleteButton.class
org/protege/editor/core/ui/view/View$2.class
org/protege/editor/core/ui/preferences/node/StringPreferenceNode.class
org/protege/editor/core/ui/RepositoryTableModel$EntryURIComparator.class
org/protege/editor/core/ModelManager.class
org/protege/editor/core/ui/workspace/tabs/DeleteCustomTabsAction$1.class
org/protege/editor/core/editorkit/plugin/EditorKitHookPluginLoader.class
org/protege/editor/core/ui/util/FileURIPanel.class
org/protege/editor/core/ui/OpenFromURLPanel$URIListItem.class
org/protege/editor/core/ui/util/CheckTable$5.class
org/protege/editor/core/ui/workspace/views/ViewMenuAction$1.class
org/protege/editor/core/ProtegeProperties.class
org/protege/editor/core/plugin/ExtensionInstantiator.class
org/protege/editor/core/ui/workspace/views/ViewNodePanel.class
org/protege/editor/core/log/LogRecordModel.class
org/protege/editor/core/ui/view/ViewIcon.class
org/protege/editor/core/ui/progress/BackgroundTaskListPanel.class
org/protege/editor/core/ui/view/ViewBanner.class
org/protege/editor/core/ui/util/UIUtil$1.class
org/protege/editor/core/ui/view/ViewActionPlugin.class
org/protege/editor/core/ui/view/View$1.class
org/protege/editor/core/ui/util/UIUtil.class
org/protege/editor/core/ui/RefreshableComponent.class
org/protege/editor/core/ui/error/ErrorNotificationLabel$1.class
org/protege/editor/core/ui/action/ProtegeActionPlugin.class
org/protege/editor/core/update/PluginInstaller.class
org/protege/editor/core/ui/view/ViewsPane.class
org/protege/editor/core/platform/apple/AbstractAppleApplicationWrapper.class
org/protege/editor/core/ui/util/JOptionPaneEx$3.class
org/protege/editor/core/ui/wizard/WizardPanel$FinishIdentifier.class
org/protege/editor/core/ui/workspace/WorkspaceManager$1.class
org/protege/editor/core/ui/wizard/AbstractWizardPanel.class
org/protege/editor/core/ui/view/ViewComponentFactory$1.class
org/protege/editor/core/ui/util/UIConstants.class
org/protege/editor/core/ui/action/SaveAction.class
org/protege/editor/core/ui/util/CheckTable$3.class
org/protege/editor/core/log/LogLevel.class
org/protege/editor/core/ui/util/CheckTable.class
org/protege/editor/core/ui/about/PluginInfoTable.class
org/protege/editor/core/ui/preferences/node/AbstractPreferenceNode.class
org/protege/editor/core/util/BundleBuilder.class
org/protege/editor/core/ui/split/ViewSplitPaneDivider$1.class
org/protege/editor/core/plugin/OrPluginExtensionMatcher.class
org/protege/editor/core/ui/error/ErrorLogPanel$1.class
org/protege/editor/core/ui/menu/OpenURLMenuAction.class
org/protege/editor/core/prefs/PreferencesManager.class
org/protege/editor/core/ui/tabbedpane/CloseableTabbedPaneUI.class
org/protege/editor/core/ui/workspace/WorkspaceManager.class
org/protege/editor/core/ui/view/ViewMode.class
org/protege/editor/core/log/LoggingEventTranslator.class
org/protege/editor/core/ui/about/PluginInfoTableModel$1.class
org/protege/editor/core/ui/list/MListSectionHeader.class
org/protege/editor/core/ui/util/ComponentExceptionPanel.class
org/protege/editor/core/ui/action/ProtegeActionPluginJPFImpl.class
org/protege/editor/core/editorkit/plugin/EditorKitHook.class
org/protege/editor/core/ui/error/ErrorLogListener.class
org/protege/editor/core/ui/preferences/node/PreferenceNodePanel.class
org/protege/editor/core/ui/util/JOptionPaneEx$1.class
org/protege/editor/core/ui/view/ViewContainer$TabViewContainerSplitPane.class
org/protege/editor/core/update/PluginPanel.class
org/protege/editor/core/FileManager.class
org/protege/editor/core/ui/action/ToolBarActionPluginJPFImpl.class
org/protege/editor/core/ui/util/JOptionPaneEx$2.class
org/protege/editor/core/ui/workspace/TabbedWorkspace$1.class
org/protege/editor/core/ui/util/CheckList.class
org/protege/editor/core/ui/preferences/PreferencesPanel.class
org/protege/editor/core/ui/view/ViewActionAdapter.class
org/protege/editor/core/ui/workspace/tabs/DeleteCustomTabsAction.class
org/protege/editor/core/ui/error/ErrorExplainer.class
org/protege/editor/core/ui/list/RemovableObjectList.class
org/protege/editor/core/ui/progress/BackgroundTaskManager$1.class
org/protege/editor/core/ui/util/CheckTable$2.class
org/protege/editor/core/ui/view/ViewContainer.class
org/protege/editor/core/log/ShowLogAction.class
org/protege/editor/core/ui/util/CheckList$1.class
org/protege/editor/core/ui/split/ViewSplitPane.class
org/protege/editor/core/ui/view/ViewComponentPluginLoader.class
org/protege/editor/core/plugin/AbstractApplicationPluginLoader.class
org/protege/editor/core/ui/view/ViewComponentPluginAdapter.class
org/protege/editor/core/update/PluginInstaller$1.class
org/protege/editor/core/ui/action/TimestampOutputAction.class
org/protege/editor/core/ui/list/MList$5.class
org/protege/editor/core/ui/workspace/Workspace$1.class
org/protege/editor/core/ui/view/ViewBar.class
org/protege/editor/core/ui/util/URLPanel$1.class
org/protege/editor/core/ui/util/CheckTable$1.class
org/protege/editor/core/plugin/AbstractProtegePlugin.class
org/protege/editor/core/ui/workspace/tabs/LoadedTabsSelector$1.class
org/protege/editor/core/update/PluginInfoDocumentParser.class
org/protege/editor/core/ui/util/ProtegePlasticTheme.class
org/protege/editor/core/ui/view/View.class
org/protege/editor/core/ui/error/ErrorExplainer$2.class
org/protege/editor/core/ui/RepositoryTableModel.class
org/protege/editor/core/update/PluginTable.class
org/protege/editor/core/ui/workspace/tabs/SaveAllTabsAction.class
org/protege/editor/core/ui/util/FileURIPanel$2.class
org/protege/editor/core/log/LogRecordRenderer.class
org/protege/editor/core/ui/tabbedpane/TabCloseHandler.class
org/protege/editor/core/log/LogBanner.class
org/protege/editor/core/update/PluginManager.class
org/protege/editor/core/ui/workspace/tabs/TabsMenuAction.class
org/protege/editor/core/ui/view/CaptureScreenshotAction$CaptureTypePanel.class
org/protege/editor/core/log/LogRecord.class
org/protege/editor/core/util/ProtegeDirectories.class
org/protege/editor/core/ui/view/ViewComponent.class
org/protege/editor/core/ui/RepositoryTable$1.class
org/protege/editor/core/ui/workspace/Workspace$ResultsViewComponentPlugin.class
org/protege/editor/core/ui/workspace/tabs/ResetCurrentTabAction.class
org/protege/editor/core/ui/util/SelectionProviderListener.class
org/protege/editor/core/ui/view/ViewHolder.class
org/protege/editor/core/ui/wizard/Wizard$1.class
org/protege/editor/core/update/UpdateChecker.class
org/protege/editor/core/ui/tabbedpane/CloseableTabbedPaneUI$1.class
org/protege/editor/core/ui/util/InputVerificationStatusChangedListener.class
org/protege/editor/core/ui/list/RemovableObjectList$MutableObjectListModel.class
org/protege/editor/core/ui/action/ProtegeDynamicAction.class
org/protege/editor/core/update/PluginInstaller$InstallerResult.class
org/protege/editor/core/plugin/DefaultPluginExtensionMatcher.class
org/protege/editor/core/ui/ProtegeWelcomePanel.class
org/protege/editor/core/ui/laf/ProtegeScrollBarUI$1.class
org/protege/editor/core/ui/action/ProtegeAction.class
org/protege/editor/core/ui/wizard/WizardPanelNotFoundException.class
org/protege/editor/core/plugin/ProtegePlugin.class
org/protege/editor/core/ui/preferences/node/BooleanPreferenceNode.class
org/protege/editor/core/ui/split/ViewSplitPaneDivider.class
org/protege/editor/core/editorkit/AbstractEditorKit.class
org/protege/editor/core/platform/apple/ProtegeAppleApplication.class
org/protege/editor/core/ui/preferences/node/PreferenceNodeGroup.class
org/protege/editor/core/ui/split/ViewSplitPane$1.class
org/protege/editor/core/ui/tree/ProtegeTreeUI.class
org/protege/editor/core/ui/view/View$6.class
org/protege/editor/core/ui/list/RemovableObjectList$2.class
org/protege/editor/core/ui/workspace/tabs/CreateTabAction.class
org/protege/editor/core/BookMarkedURIManager.class
org/protege/editor/core/OntologyRepositoryManager.class
org/protege/editor/core/ui/about/AboutPanel.class
org/protege/editor/core/plugin/JPFUtil.class
org/protege/editor/core/log/LogRecordElement.class
org/protege/editor/core/ui/list/MListButton.class
org/protege/editor/core/editorkit/RecentEditorKitManager.class
org/protege/editor/core/ui/util/TableUtils.class
org/protege/editor/core/ui/view/ViewComponentPropertiesFactory.class
org/protege/editor/core/ui/OpenFromURLPanel$2.class
org/protege/editor/core/PropertyUtil.class
org/protege/editor/core/ui/action/CloseAction.class
org/protege/editor/core/ui/tabbedpane/ViewTabCloseHandler.class
org/protege/editor/core/ui/view/ViewsPaneMemento.class
org/protege/editor/core/ui/view/View$4.class
org/protege/editor/core/ui/menu/MenuActionPluginLoader.class
org/protege/editor/core/ui/list/MList$MListCellRenderer.class
org/protege/editor/core/update/PluginTable$1.class
org/protege/editor/core/ui/action/start/CheckPluginsAction.class
org/protege/editor/core/ui/error/ErrorLogPanel.class
org/protege/editor/core/ui/RepositoryTableModel$1.class
org/protege/editor/core/ui/util/Icons.class
org/protege/editor/core/ui/tabbedpane/NullTabCloseHandler.class
org/protege/editor/core/ui/workspace/TabbedWorkspaceStateManager.class
org/protege/editor/core/update/PluginRegistry.class
org/protege/editor/core/ui/util/CheckList$CheckListListener.class
org/protege/editor/core/prefs/Preferences.class
org/protege/editor/core/platform/PlatformArguments.class
org/protege/editor/core/ui/view/View$8.class
org/protege/editor/core/ui/view/NestedViewSplitPane.class
org/protege/editor/core/ui/view/ViewBarComponent.class
org/protege/editor/core/ui/menu/PopupMenuId.class
org/protege/editor/core/ui/OpenFromURLPanel.class
org/protege/editor/core/platform/apple/MacUIUtil.class
org/protege/editor/core/ui/util/URLPanel.class
org/protege/editor/core/ui/list/MList$2.class
org/protege/editor/core/ui/util/LinkLabel$1.class
org/protege/editor/core/ui/view/ViewComponentFactory$1$1.class
org/protege/editor/core/ui/preferences/PreferencesLayoutPanel.class
org/protege/editor/core/ui/preferences/PreferencesPanel$1.class
org/protege/editor/core/ui/action/OpenRecentAction$1.class
org/protege/editor/core/OntologyRepositoryFactoryPluginImpl.class
org/protege/editor/core/ui/preferences/PreferencesPanelPluginLoader.class
org/protege/editor/core/ui/util/FilePathPanel$2.class
org/protege/editor/core/update/PluginRegistryImpl.class
org/protege/editor/core/ui/action/ToolBarActionComparator.class
org/protege/editor/core/update/PluginRegistryImpl$Calculator.class
org/protege/editor/core/editorkit/plugin/EditorKitHookPluginImpl.class
org/protege/editor/core/ui/workspace/views/ViewMenuAction.class
org/protege/editor/core/update/PluginPanel$ContentMimePair.class
org/protege/editor/core/ui/action/SaveAsAction.class
org/protege/editor/core/ui/RepositoryTable.class
org/protege/editor/core/ui/about/PluginInfoTableModel.class
org/protege/editor/core/ui/view/ViewHolder$1.class
org/protege/editor/core/ui/tabbedpane/CloseableTabbedPaneUI$TabClosability.class
org/protege/editor/core/ui/view/CaptureScreenshotAction$2.class
org/protege/editor/core/ui/preferences/PreferencesDialogPanel$1.class
org/protege/editor/core/ui/error/ErrorExplainer$ErrorExplanationFactory.class
org/protege/editor/core/ui/workspace/tabs/ExportTabAction.class
org/protege/editor/core/plugin/DefaultPluginActivator.class
org/protege/editor/core/ui/util/SelectionProvider.class
org/protege/editor/core/ui/view/ViewComponentPluginJPFImpl.class
org/protege/editor/core/ui/view/View$7.class
org/protege/editor/core/ui/action/start/AltStartupActionPluginLoader.class
org/protege/editor/core/update/PluginInfo.class
org/protege/editor/core/ui/list/MList$1.class
org/protege/editor/core/ui/workspace/tabs/TabsMenuAction$1.class
org/protege/editor/core/ui/view/ViewComponentFactory.class
org/protege/editor/core/ui/tabbedpane/ViewTabbedPane.class
org/protege/editor/core/ui/workspace/Workspace$2.class
org/protege/editor/core/ui/list/MList.class
org/protege/editor/core/ui/view/CaptureScreenshotAction$1.class
org/protege/editor/core/Disposable.class
org/protege/editor/core/ui/view/CaptureScreenshotAction.class
org/protege/editor/core/plugin/ProtegePluginInstance.class
org/protege/editor/core/ui/wizard/Wizard$2.class
org/protege/editor/core/ui/view/ViewModeChangedHandler.class
org/protege/editor/core/ui/action/OpenRecentAction$RecentEditorKitAction.class
org/protege/editor/core/ui/action/start/AltStartupActionPlugin.class
org/protege/editor/core/OntologyRepositoryFactoryPluginLoader.class
org/protege/editor/core/ui/preferences/node/PreferenceNodeGroupPanel.class
org/protege/editor/core/ui/view/ViewComponentPlugin.class
org/protege/editor/core/ui/action/CheckPluginsAction.class
org/protege/editor/core/ui/view/View$9.class
org/protege/editor/core/ui/workspace/WorkspaceTab.class
org/protege/editor/core/ui/list/MListItem.class
org/protege/editor/core/ui/util/FilePathPanel.class
org/protege/editor/core/ui/menu/NullMenuAction.class
org/protege/editor/core/ui/error/ErrorNotificationLabel.class
org/protege/editor/core/ui/list/MList$3.class
org/protege/editor/core/ui/menu/MenuBuilder.class
org/protege/editor/core/ProtegeApplication.class
org/protege/editor/core/ui/workspace/Workspace$4.class
org/protege/editor/core/ui/workspace/WorkspaceFrame.class
org/protege/editor/core/ui/progress/BackgroundTaskManager.class
org/protege/editor/core/editorkit/EditorKitManager.class
org/protege/editor/core/ui/workspace/tabs/LoadedTabsSelector.class
org/protege/editor/core/ui/action/OpenAction.class
org/protege/editor/core/OntologyRepository.class
org/protege/editor/core/ui/workspace/Workspace$3.class
org/protege/editor/core/ui/laf/ProtegeScrollBarUI.class
org/protege/editor/core/ui/view/CaptureScreenshotAction$CaptureType.class
org/protege/editor/core/ui/list/MList$4.class
org/protege/editor/core/ui/OpenFromURLPanel$BookmarkedItemListRenderer.class
org/protege/editor/core/ui/workspace/tabs/ResetCurrentTabAction$1.class
org/protege/editor/core/ui/list/RemovableObjectList$RemovableObjectListItem.class
