-------------------------------------------------------------------------------
Test set: org.protege.osgi.framework.SymbolicName_TestCase
-------------------------------------------------------------------------------
Tests run: 8, Failures: 0, Errors: 0, Skipped: 0, Time elapsed: 0.001 sec
