/home/chwi02/Repos/x-protege/xprotege-editor/src/test/java/de/dfki/x_protege/OntoLoadTest.java
/home/chwi02/Repos/x-protege/xprotege-editor/src/test/java/de/dfki/x_protege/SearchFieldTest.java
/home/chwi02/Repos/x-protege/xprotege-editor/src/test/java/de/dfki/x_protege/TestHFCUpdate_basic.java
/home/chwi02/Repos/x-protege/xprotege-editor/src/test/java/de/dfki/x_protege/MetricsTest.java
/home/chwi02/Repos/x-protege/xprotege-editor/src/test/java/de/dfki/x_protege/OntologyTest_basic.java
/home/chwi02/Repos/x-protege/xprotege-editor/src/test/java/de/dfki/x_protege/TestUtils.java
/home/chwi02/Repos/x-protege/xprotege-editor/src/test/java/de/dfki/x_protege/TestHFCUpdate_advanced.java
/home/chwi02/Repos/x-protege/xprotege-editor/src/test/java/de/dfki/x_protege/ClassesTest.java
/home/chwi02/Repos/x-protege/xprotege-editor/src/test/java/de/dfki/x_protege/InstanceTest.java
/home/chwi02/Repos/x-protege/xprotege-editor/src/test/java/de/dfki/x_protege/NamespaceTest.java
/home/chwi02/Repos/x-protege/xprotege-editor/src/test/java/de/dfki/x_protege/ConstructorTest.java
